Dec-23 18:51:16.380 [main] DEBUG nextflow.cli.Launcher - $> nextflow run tutorial.nf
Dec-23 18:51:16.418 [main] INFO  nextflow.cli.CmdRun - N E X T F L O W  ~  version 21.10.6
Dec-23 18:51:16.439 [main] INFO  nextflow.cli.CmdRun - Launching `tutorial.nf` [irreverent_kilby] - revision: be42f295f4
Dec-23 18:51:16.507 [main] DEBUG nextflow.plugin.PluginsFacade - Setting up plugin manager > mode=prod; plugins-dir=/home/alekos/.nextflow/plugins
Dec-23 18:51:16.508 [main] DEBUG nextflow.plugin.PluginsFacade - Plugins default=[]
Dec-23 18:51:16.517 [main] INFO  org.pf4j.DefaultPluginStatusProvider - Enabled plugins: []
Dec-23 18:51:16.518 [main] INFO  org.pf4j.DefaultPluginStatusProvider - Disabled plugins: []
Dec-23 18:51:16.520 [main] INFO  org.pf4j.DefaultPluginManager - PF4J version 3.4.1 in 'deployment' mode
Dec-23 18:51:16.530 [main] INFO  org.pf4j.AbstractPluginManager - No plugins
Dec-23 18:51:16.572 [main] DEBUG nextflow.Session - Session uuid: 9d9189ea-1f59-401f-8495-19c5df3ef44e
Dec-23 18:51:16.572 [main] DEBUG nextflow.Session - Run name: irreverent_kilby
Dec-23 18:51:16.573 [main] DEBUG nextflow.Session - Executor pool size: 16
Dec-23 18:51:16.597 [main] DEBUG nextflow.cli.CmdRun - 
  Version: 21.10.6 build 5660
  Created: 21-12-2021 16:55 UTC (22-12-2021 01:55 JDT)
  System: Linux 5.15.10-zen1-1-zen
  Runtime: Groovy 3.0.9 on OpenJDK 64-Bit Server VM 11.0.13+8
  Encoding: UTF-8 (UTF-8)
  Process: 132065@biosophia [127.0.1.1]
  CPUs: 16 - Mem: 31 GB (18.8 GB) - Swap: 31 GB (31 GB)
Dec-23 18:51:16.619 [main] DEBUG nextflow.Session - Work-dir: /home/alekos/Documents/learning/nextflow/work [btrfs]
Dec-23 18:51:16.620 [main] DEBUG nextflow.Session - Script base path does not exist or is not a directory: /home/alekos/Documents/learning/nextflow/bin
Dec-23 18:51:16.626 [main] DEBUG nextflow.executor.ExecutorFactory - Extension executors providers=[]
Dec-23 18:51:16.636 [main] DEBUG nextflow.Session - Observer factory: DefaultObserverFactory
Dec-23 18:51:16.663 [main] DEBUG nextflow.util.CustomThreadPool - Creating default thread pool > poolSize: 17; maxThreads: 1000
Dec-23 18:51:16.740 [main] DEBUG nextflow.Session - Session start invoked
Dec-23 18:51:17.252 [main] DEBUG nextflow.script.ScriptRunner - > Launching execution
Dec-23 18:51:17.307 [main] DEBUG nextflow.executor.ExecutorFactory - << taskConfig executor: null
Dec-23 18:51:17.307 [main] DEBUG nextflow.executor.ExecutorFactory - >> processorType: 'local'
Dec-23 18:51:17.312 [main] DEBUG nextflow.executor.Executor - [warm up] executor > local
Dec-23 18:51:17.333 [main] DEBUG n.processor.LocalPollingMonitor - Creating local task monitor for executor 'local' > cpus=16; memory=31 GB; capacity=16; pollInterval=100ms; dumpInterval=5m
Dec-23 18:51:17.364 [main] DEBUG nextflow.util.CustomThreadPool - Creating default thread pool > poolSize: 17; maxThreads: 1000
Dec-23 18:51:17.476 [main] DEBUG nextflow.executor.ExecutorFactory - << taskConfig executor: null
Dec-23 18:51:17.477 [main] DEBUG nextflow.executor.ExecutorFactory - >> processorType: 'local'
Dec-23 18:51:17.494 [main] DEBUG nextflow.Session - Workflow process names [dsl1]: convertToUpper, splitLetters
Dec-23 18:51:17.495 [main] DEBUG nextflow.script.ScriptRunner - > Await termination 
Dec-23 18:51:17.495 [main] DEBUG nextflow.Session - Session await
Dec-23 18:51:17.560 [Task submitter] DEBUG nextflow.executor.LocalTaskHandler - Launch cmd line: /bin/bash -ue .command.run
Dec-23 18:51:17.564 [Task submitter] INFO  nextflow.Session - [be/ffd85c] Submitted process > splitLetters
Dec-23 18:51:17.590 [Task monitor] DEBUG n.processor.TaskPollingMonitor - Task completed > TaskHandler[id: 1; name: splitLetters; status: COMPLETED; exit: 0; error: -; workDir: /home/alekos/Documents/learning/nextflow/work/be/ffd85c9dc3eba6cc8f34cf86efec55]
Dec-23 18:51:17.641 [Task submitter] DEBUG nextflow.executor.LocalTaskHandler - Launch cmd line: /bin/bash -ue .command.run
Dec-23 18:51:17.642 [Task submitter] INFO  nextflow.Session - [c5/9c9b00] Submitted process > convertToUpper (2)
Dec-23 18:51:17.648 [Task submitter] DEBUG nextflow.executor.LocalTaskHandler - Launch cmd line: /bin/bash -ue .command.run
Dec-23 18:51:17.649 [Task submitter] INFO  nextflow.Session - [1c/5951c1] Submitted process > convertToUpper (1)
Dec-23 18:51:17.661 [Task monitor] DEBUG n.processor.TaskPollingMonitor - Task completed > TaskHandler[id: 3; name: convertToUpper (2); status: COMPLETED; exit: 0; error: -; workDir: /home/alekos/Documents/learning/nextflow/work/c5/9c9b00d3ddaaede904e84bdff9a5b5]
Dec-23 18:51:17.674 [Task monitor] DEBUG n.processor.TaskPollingMonitor - Task completed > TaskHandler[id: 2; name: convertToUpper (1); status: COMPLETED; exit: 0; error: -; workDir: /home/alekos/Documents/learning/nextflow/work/1c/5951c1cae8e3fbefa54c17e3633dcc]
Dec-23 18:51:17.676 [main] DEBUG nextflow.Session - Session await > all process finished
Dec-23 18:51:17.677 [main] DEBUG nextflow.Session - Session await > all barriers passed
Dec-23 18:51:17.682 [main] DEBUG nextflow.trace.WorkflowStatsObserver - Workflow completed > WorkflowStats[succeededCount=3; failedCount=0; ignoredCount=0; cachedCount=0; pendingCount=0; submittedCount=0; runningCount=0; retriesCount=0; abortedCount=0; succeedDuration=16ms; failedDuration=0ms; cachedDuration=0ms;loadCpus=0; loadMemory=0; peakRunning=1; peakCpus=1; peakMemory=0; ]
Dec-23 18:51:17.781 [main] DEBUG nextflow.CacheDB - Closing CacheDB done
Dec-23 18:51:17.796 [main] DEBUG nextflow.script.ScriptRunner - > Execution complete -- Goodbye
