Dec-23 18:54:20.722 [main] DEBUG nextflow.cli.Launcher - $> nextflow run tutorial.nf
Dec-23 18:54:20.771 [main] INFO  nextflow.cli.CmdRun - N E X T F L O W  ~  version 21.10.6
Dec-23 18:54:20.791 [main] INFO  nextflow.cli.CmdRun - Launching `tutorial.nf` [berserk_sanger] - revision: 9773557b48
Dec-23 18:54:20.867 [main] DEBUG nextflow.plugin.PluginsFacade - Setting up plugin manager > mode=prod; plugins-dir=/home/alekos/.nextflow/plugins
Dec-23 18:54:20.869 [main] DEBUG nextflow.plugin.PluginsFacade - Plugins default=[]
Dec-23 18:54:20.877 [main] INFO  org.pf4j.DefaultPluginStatusProvider - Enabled plugins: []
Dec-23 18:54:20.878 [main] INFO  org.pf4j.DefaultPluginStatusProvider - Disabled plugins: []
Dec-23 18:54:20.881 [main] INFO  org.pf4j.DefaultPluginManager - PF4J version 3.4.1 in 'deployment' mode
Dec-23 18:54:20.889 [main] INFO  org.pf4j.AbstractPluginManager - No plugins
Dec-23 18:54:20.937 [main] DEBUG nextflow.Session - Session uuid: c98bd3c5-c981-4787-a139-6d67682981e9
Dec-23 18:54:20.938 [main] DEBUG nextflow.Session - Run name: berserk_sanger
Dec-23 18:54:20.939 [main] DEBUG nextflow.Session - Executor pool size: 16
Dec-23 18:54:20.969 [main] DEBUG nextflow.cli.CmdRun - 
  Version: 21.10.6 build 5660
  Created: 21-12-2021 16:55 UTC (22-12-2021 01:55 JDT)
  System: Linux 5.15.10-zen1-1-zen
  Runtime: Groovy 3.0.9 on OpenJDK 64-Bit Server VM 11.0.13+8
  Encoding: UTF-8 (UTF-8)
  Process: 132847@biosophia [127.0.1.1]
  CPUs: 16 - Mem: 31 GB (18.7 GB) - Swap: 31 GB (31 GB)
Dec-23 18:54:20.991 [main] DEBUG nextflow.Session - Work-dir: /home/alekos/Documents/learning/nextflow/work [btrfs]
Dec-23 18:54:20.991 [main] DEBUG nextflow.Session - Script base path does not exist or is not a directory: /home/alekos/Documents/learning/nextflow/bin
Dec-23 18:54:20.998 [main] DEBUG nextflow.executor.ExecutorFactory - Extension executors providers=[]
Dec-23 18:54:21.007 [main] DEBUG nextflow.Session - Observer factory: DefaultObserverFactory
Dec-23 18:54:21.034 [main] DEBUG nextflow.util.CustomThreadPool - Creating default thread pool > poolSize: 17; maxThreads: 1000
Dec-23 18:54:21.085 [main] DEBUG nextflow.Session - Session start invoked
Dec-23 18:54:21.615 [main] DEBUG nextflow.script.ScriptRunner - > Launching execution
Dec-23 18:54:21.691 [main] DEBUG nextflow.executor.ExecutorFactory - << taskConfig executor: null
Dec-23 18:54:21.691 [main] DEBUG nextflow.executor.ExecutorFactory - >> processorType: 'local'
Dec-23 18:54:21.694 [main] DEBUG nextflow.executor.Executor - [warm up] executor > local
Dec-23 18:54:21.708 [main] DEBUG n.processor.LocalPollingMonitor - Creating local task monitor for executor 'local' > cpus=16; memory=31 GB; capacity=16; pollInterval=100ms; dumpInterval=5m
Dec-23 18:54:21.728 [main] DEBUG nextflow.util.CustomThreadPool - Creating default thread pool > poolSize: 17; maxThreads: 1000
Dec-23 18:54:21.822 [main] DEBUG nextflow.executor.ExecutorFactory - << taskConfig executor: null
Dec-23 18:54:21.822 [main] DEBUG nextflow.executor.ExecutorFactory - >> processorType: 'local'
Dec-23 18:54:21.840 [main] DEBUG nextflow.Session - Workflow process names [dsl1]: convertToUpper, splitLetters
Dec-23 18:54:21.841 [main] DEBUG nextflow.script.ScriptRunner - > Await termination 
Dec-23 18:54:21.841 [main] DEBUG nextflow.Session - Session await
Dec-23 18:54:21.922 [Task submitter] DEBUG nextflow.executor.LocalTaskHandler - Launch cmd line: /bin/bash -ue .command.run
Dec-23 18:54:21.928 [Task submitter] INFO  nextflow.Session - [0a/757312] Submitted process > splitLetters
Dec-23 18:54:21.960 [Task monitor] DEBUG n.processor.TaskPollingMonitor - Task completed > TaskHandler[id: 1; name: splitLetters; status: COMPLETED; exit: 0; error: -; workDir: /home/alekos/Documents/learning/nextflow/work/0a/757312637c1583812c7538832f1899]
Dec-23 18:54:22.010 [Task submitter] DEBUG nextflow.executor.LocalTaskHandler - Launch cmd line: /bin/bash -ue .command.run
Dec-23 18:54:22.010 [Task submitter] INFO  nextflow.Session - [9d/a461d6] Submitted process > convertToUpper (2)
Dec-23 18:54:22.015 [Task submitter] DEBUG nextflow.executor.LocalTaskHandler - Launch cmd line: /bin/bash -ue .command.run
Dec-23 18:54:22.016 [Task submitter] INFO  nextflow.Session - [7c/66c238] Submitted process > convertToUpper (1)
Dec-23 18:54:22.039 [Task monitor] DEBUG n.processor.TaskPollingMonitor - Task completed > TaskHandler[id: 3; name: convertToUpper (2); status: COMPLETED; exit: 0; error: -; workDir: /home/alekos/Documents/learning/nextflow/work/9d/a461d6443c3ddd8136f4a6c1665333]
Dec-23 18:54:22.043 [Task monitor] DEBUG n.processor.TaskPollingMonitor - Task completed > TaskHandler[id: 2; name: convertToUpper (1); status: COMPLETED; exit: 0; error: -; workDir: /home/alekos/Documents/learning/nextflow/work/7c/66c238dc1176da72e6e8ff3e50674f]
Dec-23 18:54:22.045 [main] DEBUG nextflow.Session - Session await > all process finished
Dec-23 18:54:22.135 [main] DEBUG nextflow.Session - Session await > all barriers passed
Dec-23 18:54:22.142 [main] DEBUG nextflow.trace.WorkflowStatsObserver - Workflow completed > WorkflowStats[succeededCount=3; failedCount=0; ignoredCount=0; cachedCount=0; pendingCount=0; submittedCount=0; runningCount=0; retriesCount=0; abortedCount=0; succeedDuration=13ms; failedDuration=0ms; cachedDuration=0ms;loadCpus=0; loadMemory=0; peakRunning=1; peakCpus=1; peakMemory=0; ]
Dec-23 18:54:22.323 [main] DEBUG nextflow.CacheDB - Closing CacheDB done
Dec-23 18:54:22.329 [main] DEBUG nextflow.script.ScriptRunner - > Execution complete -- Goodbye
